…
<img src="man/figures/README-example-1.png" width="100%" />

We have some informal functions to experiment with.

``` r

## this is just different methods of unique-fying coordinates to vertices
edges_vctrs(inlandwaters)
#> old-style crs object detected; please recreate object with a recent sf::st_crs()
#> $verts
#> # A tibble: 30,835 × 3
#>           x        y .idx0
#>       <dbl>    <dbl> <int>
#>  1 1116371. -458419.     1
#>  2 1117093. -457111.     2
#>  3 1117172. -456893.     3
#>  4 1117741. -456561.     4
#>  5 1117629. -455510.     5
#>  6 1116923. -453749.     6
#>  7 1117385. -453059.     7
#>  8 1118218. -452672.     8
#>  9 1118583. -451765.     9
#> 10 1118420. -451205.    10
#> # ℹ 30,825 more rows
#> 
#> $edge
#> # A tibble: 33,455 × 4
#>    feature_id part_id ring_id edge$x0   $x1
#>         <int>   <int>   <int>   <int> <int>
#>  1          1       2       1       1     2
#>  2          1       2       1       2     3
#>  3          1       2       1       3     4
#>  4          1       2       1       4     5
#>  5          1       2       1       5     6
#>  6          1       2       1       6     7
#>  7          1       2       1       7     8
#>  8          1       2       1       8     9
#>  9          1       2       1       9    10
#> 10          1       2       1      10    11
#> # ℹ 33,445 more rows
#> 
#> $crs
#> [1] NA
edges_unjoin(inlandwaters)
#> old-style crs object detected; please recreate object with a recent sf::st_crs()
#> $verts
#> # A tibble: 30,835 × 3
#>           x        y .idx0
#>       <dbl>    <dbl> <int>
#>  1 1116371. -458419. 24305
#>  2 1117093. -457111. 24316
#>  3 1117172. -456893. 24318
#>  4 1117741. -456561. 24328
#>  5 1117629. -455510. 24326
#>  6 1116923. -453749. 24313
#>  7 1117385. -453059. 24321
#>  8 1118218. -452672. 24343
#>  9 1118583. -451765. 24354
#> 10 1118420. -451205. 24349
#> # ℹ 30,825 more rows
#> 
#> $edge
#> # A tibble: 33,455 × 4
#>    feature_id part_id ring_id edge$x0   $x1
#>         <int>   <int>   <int>   <int> <int>
#>  1          1       2       1   24305 24316
#>  2          1       2       1   24316 24318
#>  3          1       2       1   24318 24328
#>  4          1       2       1   24328 24326
#>  5          1       2       1   24326 24313
#>  6          1       2       1   24313 24321
#>  7          1       2       1   24321 24343
#>  8          1       2       1   24343 24354
#>  9          1       2       1   24354 24349
#> 10          1       2       1   24349 24344
#> # ℹ 33,445 more rows
…
